{
  "name": "Bombirdier",
  "nationalPokedexNumber": 962,
  "primaryType": "flying",
  "secondaryType": "dark",
  "abilities": [
    "bigpecks",
    "keeneye",
    "h:rockypayload"
  ],
  "baseStats": {
    "hp": 70,
    "attack": 103,
    "defence": 85,
    "special_attack": 60,
    "special_defence": 85,
    "speed": 82
  },
  "catchRate": 25,
  "maleRatio": 0.5,
  "baseExperienceYield": 0,
  "baseFriendship": 50,
  "evYield": {
    "hp": 0,
    "attack": 2,
    "defence": 0,
    "special_attack": 0,
    "special_defence": 0,
    "speed": 0
  },
  "experienceGroup": "slow",
  "eggCycles": 35,
  "eggGroups": [
    "flying"
  ],
  "moves": [
    "1:honeclaws",
    "1:leer",
    "1:memento",
    "1:peck",
    "1:wingattack",
    "7:thief",
    "11:rockthrow",
    "16:whirlwind",
    "20:pluck",
    "24:torment",
    "29:rocktomb",
    "36:payback",
    "42:dualwingbeat",
    "47:rockslide",
    "53:knockoff",
    "60:partingshot",
    "egg:featherdance",
    "egg:powertrip",
    "egg:roost",
    "egg:skyattack",
    "egg:suckerpunch",
    "tm:acrobatics",
    "tm:aerialace",
    "tm:aircutter",
    "tm:airslash",
    "tm:bravebird",
    "tm:darkpulse",
    "tm:drillrun",
    "tm:endure",
    "tm:facade",
    "tm:fly",
    "tm:foulplay",
    "tm:gigaimpact",
    "tm:heatwave",
    "tm:hurricane",
    "tm:hyperbeam",
    "tm:hypervoice",
    "tm:icywind",
    "tm:nastyplot",
    "tm:powergem",
    "tm:protect",
    "tm:raindance",
    "tm:rockblast",
    "tm:rockslide",
    "tm:rocktomb",
    "tm:sandstorm",
    "tm:scaryface",
    "tm:sleeptalk",
    "tm:snarl",
    "tm:stealthrock",
    "tm:stoneedge",
    "tm:substitute",
    "tm:sunnyday",
    "tm:tailwind",
    "tm:takedown",
    "tm:taunt",
    "tm:terablast",
    "tm:thief",
    "tm:uturn",
    "tutor:pluck",
    "tutor:rockthrow",
    "tutor:torment",
    "tutor:wingattack"
  ],
  "labels": [
    "gen9"
  ],
  "aspects": [],
  "height": 15,
  "weight": 429,
  "evolutions": [],
  "cannotDynamax": false,
  "pokedex": [
    "cobblemon.species.bombirdier.desc"
  ]
}