{
  "name": "Clodsire",
  "nationalPokedexNumber": 980,
  "primaryType": "poison",
  "secondaryType": "ground",
  "abilities": [
    "poisonpoint",
    "waterabsorb",
    "h:unaware"
  ],
  "baseStats": {
    "hp": 130,
    "attack": 75,
    "defence": 60,
    "special_attack": 45,
    "special_defence": 100,
    "speed": 20
  },
  "catchRate": 90,
  "maleRatio": 0.5,
  "baseExperienceYield": 0,
  "baseFriendship": 50,
  "evYield": {
    "hp": 2,
    "attack": 0,
    "defence": 0,
    "special_attack": 0,
    "special_defence": 0,
    "speed": 0
  },
  "experienceGroup": "medium_fast",
  "eggCycles": 20,
  "eggGroups": [
    "water_1",
    "field"
  ],
  "moves": [
    "1:poisonsting",
    "1:tailwhip",
    "4:toxicspikes",
    "8:mudshot",
    "12:poisontail",
    "16:slam",
    "21:yawn",
    "24:poisonjab",
    "30:sludgewave",
    "36:megahorn",
    "40:toxic",
    "48:earthquake",
    "tm:acidspray",
    "tm:amnesia",
    "tm:bodypress",
    "tm:bodyslam",
    "tm:bulldoze",
    "tm:chillingwater",
    "tm:dig",
    "tm:earthpower",
    "tm:earthquake",
    "tm:endure",
    "tm:facade",
    "tm:gigaimpact",
    "tm:gunkshot",
    "tm:heavyslam",
    "tm:helpinghand",
    "tm:hydropump",
    "tm:hyperbeam",
    "tm:ironhead",
    "tm:liquidation",
    "tm:lowkick",
    "tm:mudshot",
    "tm:mudslap",
    "tm:poisonjab",
    "tm:poisontail",
    "tm:protect",
    "tm:raindance",
    "tm:rest",
    "tm:rockslide",
    "tm:rocktomb",
    "tm:sandstorm",
    "tm:sleeptalk",
    "tm:sludgebomb",
    "tm:spikes",
    "tm:stealthrock",
    "tm:stompingtantrum",
    "tm:stoneedge",
    "tm:substitute",
    "tm:surf",
    "tm:takedown",
    "tm:terablast",
    "tm:toxicspikes",
    "tm:trailblaze",
    "tm:venoshock",
    "tm:waterfall",
    "tm:waterpulse",
    "tm:zenheadbutt"
  ],
  "labels": [
    "gen9"
  ],
  "aspects": [],
  "height": 18,
  "weight": 2230,
  "preEvolution": "wooper form=paldea",
  "evolutions": [],
  "cannotDynamax": false,
  "pokedex": [
    "cobblemon.species.clodsire.desc"
  ]
}