{
  "name": "Quaxly",
  "nationalPokedexNumber": 912,
  "primaryType": "water",
  "abilities": [
    "torrent",
    "h:moxie"
  ],
  "baseStats": {
    "hp": 55,
    "attack": 65,
    "defence": 45,
    "special_attack": 50,
    "special_defence": 45,
    "speed": 50
  },
  "catchRate": 45,
  "maleRatio": 0.875,
  "baseExperienceYield": 0,
  "baseFriendship": 50,
  "evYield": {
    "hp": 0,
    "attack": 1,
    "defence": 0,
    "special_attack": 0,
    "special_defence": 0,
    "speed": 0
  },
  "experienceGroup": "medium_slow",
  "eggCycles": 20,
  "eggGroups": [
    "flying",
    "water_1"
  ],
  "moves": [
    "1:growl",
    "1:pound",
    "1:watergun",
    "7:workup",
    "10:wingattack",
    "13:aquajet",
    "17:doublehit",
    "21:aquacutter",
    "24:airslash",
    "28:focusenergy",
    "31:acrobatics",
    "35:liquidation",
    "egg:detect",
    "egg:lastresort",
    "egg:rapidspin",
    "egg:roost",
    "tm:acrobatics",
    "tm:aerialace",
    "tm:aircutter",
    "tm:airslash",
    "tm:batonpass",
    "tm:bravebird",
    "tm:chillingwater",
    "tm:disarmingvoice",
    "tm:encore",
    "tm:endure",
    "tm:facade",
    "tm:helpinghand",
    "tm:hydropump",
    "tm:liquidation",
    "tm:lowkick",
    "tm:mistyterrain",
    "tm:protect",
    "tm:raindance",
    "tm:rest",
    "tm:surf",
    "tm:swift",
    "tm:takedown",
    "tm:terablast",
    "tm:waterpledge"
  ],
  "labels": [
    "gen9"
  ],
  "aspects": [],
  "height": 5,
  "weight": 61,
  "evolutions": [
    {
      "id": "quaxly_quaxwell",
      "variant": "level_up",
      "result": "quaxwell",
      "consumeHeldItem": false,
      "learnableMoves": [],
      "requirements": [
        {
          "variant": "level",
          "minLevel": 16
        }
      ]
    }
  ],
  "cannotDynamax": false,
  "pokedex": [
    "cobblemon.species.quaxly.desc"
  ]
}