{
	"format_version": "1.12.0",
	"minecraft:geometry": [
		{
			"description": {
				"identifier": "geometry.piloswine_female",
				"texture_width": 64,
				"texture_height": 64,
				"visible_bounds_width": 3,
				"visible_bounds_height": 2.5,
				"visible_bounds_offset": [0, 0.75, 0]
			},
			"bones": [
				{
					"name": "piloswine_male",
					"pivot": [0, 0, 0]
				},
				{
					"name": "body",
					"parent": "piloswine_male",
					"pivot": [0, 7.25, -0.5]
				},
				{
					"name": "torso_back",
					"parent": "body",
					"pivot": [0, 7.25, -0.5],
					"cubes": [
						{"origin": [-4.5, 0.75, -1], "size": [9, 15, 9], "uv": [0, 0]}
					]
				},
				{
					"name": "torso_front",
					"parent": "body",
					"pivot": [0, 6.75, -1],
					"cubes": [
						{"origin": [-4, 0.75, -8], "size": [8, 13, 7], "uv": [0, 24]}
					]
				},
				{
					"name": "snout",
					"parent": "torso_front",
					"pivot": [0, 3, -6.75],
					"cubes": [
						{"origin": [-1.5, 2, -8.75], "size": [3, 2, 2], "uv": [10, 44]}
					]
				},
				{
					"name": "lefttusk",
					"parent": "torso_front",
					"pivot": [3, 2.5, -7.75],
					"rotation": [10, -2.5, 20],
					"cubes": [
						{"origin": [2, 1.5, -9.75], "size": [2, 2, 2], "uv": [35, 46]},
						{"origin": [1.35723, 2.32552, -11.36553], "size": [2, 0, 2], "pivot": [2.69344, 2.499, -11.2912], "rotation": [0, 22.5, 0], "uv": [0, 5]}
					]
				},
				{
					"name": "righttusk",
					"parent": "torso_front",
					"pivot": [-3, 2.5, -7.75],
					"rotation": [10, 2.5, -20],
					"cubes": [
						{"origin": [-4, 1.5, -9.75], "size": [2, 2, 2], "uv": [27, 46]},
						{"origin": [-3.35723, 2.32552, -11.36553], "size": [2, 0, 2], "pivot": [-2.69344, 2.499, -11.2912], "rotation": [0, -22.5, 0], "uv": [0, 7]}
					]
				},
				{
					"name": "leftear",
					"parent": "torso_front",
					"pivot": [4, 9.5, -5.25],
					"rotation": [0, -2.5, 85],
					"cubes": [
						{"origin": [4, 9.5, -7.25], "size": [7, 0, 4], "uv": [26, 37]}
					]
				},
				{
					"name": "rightear",
					"parent": "torso_front",
					"pivot": [-4, 9.5, -5.25],
					"rotation": [0, 2.5, -85],
					"cubes": [
						{"origin": [-11, 9.5, -7.25], "size": [7, 0, 4], "uv": [40, 0]}
					]
				},
				{
					"name": "righthair",
					"parent": "torso_front",
					"pivot": [-2.75, 8.75, -8],
					"rotation": [-5, 0, 5],
					"cubes": [
						{"origin": [-4.25, 3.75, -8], "size": [4, 5, 0], "uv": [27, 0]}
					]
				},
				{
					"name": "lefthair",
					"parent": "torso_front",
					"pivot": [2.75, 8.75, -8],
					"rotation": [-5, 0, -5],
					"cubes": [
						{"origin": [0.25, 3.75, -8], "size": [4, 5, 0], "uv": [0, 0]}
					]
				},
				{
					"name": "bottom_pelt_right",
					"parent": "body",
					"pivot": [-3.90713, 1.14763, 0],
					"cubes": [
						{"origin": [-7.90713, 0.64763, -8], "size": [4, 0, 17], "pivot": [-5.90713, 0.64763, 1], "rotation": [0, 0, -17.5], "uv": [19, 0]}
					]
				},
				{
					"name": "bottom_pelt_left",
					"parent": "body",
					"pivot": [3.90713, 1.14763, 0],
					"cubes": [
						{"origin": [3.90713, 0.64763, -8], "size": [4, 0, 17], "pivot": [5.90713, 0.64763, 1], "rotation": [0, 0, 17.5], "uv": [19, 17]}
					]
				},
				{
					"name": "bottom_pelt_back",
					"parent": "body",
					"pivot": [0, 1.04799, 7.93027],
					"cubes": [
						{"origin": [-5.5, 0.54799, 7.93027], "size": [11, 0, 3], "pivot": [0, 0.54799, 9.43027], "rotation": [-20, 0, 0], "uv": [27, 34]}
					]
				},
				{
					"name": "leftbackfoot",
					"parent": "body",
					"pivot": [2.25, 1, 4.25],
					"cubes": [
						{"origin": [1.25, 0, 2.25], "size": [2, 1, 3], "uv": [0, 44]}
					]
				},
				{
					"name": "rightbackfoot",
					"parent": "body",
					"pivot": [-2.25, 1, 4.25],
					"cubes": [
						{"origin": [-3.25, 0, 2.25], "size": [2, 1, 3], "uv": [37, 41]}
					]
				},
				{
					"name": "rightfrontfoot",
					"parent": "body",
					"pivot": [-2, 1, -2.75],
					"cubes": [
						{"origin": [-3, 0, -4.75], "size": [2, 1, 3], "uv": [44, 8]}
					]
				},
				{
					"name": "leftfrontfoot",
					"parent": "body",
					"pivot": [2, 1, -2.75],
					"cubes": [
						{"origin": [1, 0, -4.75], "size": [2, 1, 3], "uv": [44, 4]}
					]
				}
			]
		}
	]
}