{
  "parent": "cobblemon:recipes/root",
  "criteria": {
    "has_meal": {
      "conditions": {
        "items": [
          {
            "items": [
              "minecraft:bone_meal"
            ]
          }
        ]
      },
      "trigger": "minecraft:inventory_changed"
    },
    "has_the_recipe": {
      "conditions": {
        "recipe": "cobblemon:miracle_seed"
      },
      "trigger": "minecraft:recipe_unlocked"
    }
  },
  "requirements": [
    [
      "has_meal",
      "has_the_recipe"
    ]
  ],
  "rewards": {
    "recipes": [
      "cobblemon:miracle_seed"
    ]
  }
}